{
  "name": "arden-limits",
  "version": "0.1.0",
  "author": "Phil DeMonaco",
  "summary": "Manages /etc/security/limits.d/ config files",
  "license": "MIT",
  "source": "https://gitlab.com/arden-puppet/arden-limits",
  "project_page": "https://gitlab.com/arden-puppet/arden-limits",
  "issues_url": "https://gitlab.com/arden-puppet/arden-limits/issues",
  "dependencies": [
    {
      "name": "puppetlabs/stdlib",
      "version_requirement": ">= 4.25.1 < 8.0.0"
    }
  ],
  "operatingsystem_support": [
    {
      "operatingsystem": "CentOS",
      "operatingsystemrelease": [
        "7"
      ]
    },
    {
      "operatingsystem": "OracleLinux",
      "operatingsystemrelease": [
        "7"
      ]
    },
    {
      "operatingsystem": "RedHat",
      "operatingsystemrelease": [
        "8"
      ]
    },
    {
      "operatingsystem": "Scientific",
      "operatingsystemrelease": [
        "7"
      ]
    }
  ],
  "requirements": [
    {
      "name": "puppet",
      "version_requirement": ">= 6.21.0 < 8.0.0"
    }
  ],
  "pdk-version": "2.1.0",
  "template-url": "pdk-default#2.1.0",
  "template-ref": "tags/2.1.0-0-ga675ea5"
}
